0,46,0.191236
1,46,-0.387592
2,46,0.128893
3,46,0.554280
4,46,-0.199408
5,46,-0.267637
6,46,-0.035586
7,46,0.028099
8,46,-0.559113
9,46,0.122760
10,46,-0.171988
11,46,0.049715
12,46,0.141144
13,46,0.245841
14,46,-0.002774
15,46,0.059309
16,46,-0.977881
17,46,-0.154906
18,46,-0.721715
19,46,0.536918
20,46,-0.148319
21,46,-0.423989
22,46,0.102186
23,46,0.636217
24,46,-0.310568
25,46,-0.338431
26,46,0.329213
27,46,-0.097559
28,46,-0.736656
29,46,0.800776
30,46,0.233052
31,46,-0.175117
32,46,-0.031050
33,46,-0.032066
34,46,-0.517723
35,46,0.172889
36,46,-0.021947
37,46,-0.050002
38,46,-0.192806
39,46,-0.137469
40,46,-0.079486
41,46,-0.094685
42,46,-0.092664
43,46,0.778389
44,46,-0.381566
45,46,-0.095020
0,47,0.344248
1,47,0.127066
2,47,0.041392
3,47,-0.149541
4,47,0.275475
5,47,0.293586
6,47,0.000138
7,47,-0.338821
8,47,-0.106475
9,47,-0.646935
10,47,-0.121539
11,47,-0.404486
12,47,-0.117662
13,47,-0.615472
14,47,0.489980
15,47,0.320200
16,47,0.058712
17,47,-0.219516
18,47,-0.340248
19,47,-0.106536
20,47,-0.176661
21,47,-0.148957
22,47,-0.011251
23,47,0.395670
24,47,-0.453989
25,47,-0.320676
26,47,-0.367766
27,47,0.280853
28,47,0.177200
29,47,0.615530
30,47,0.269909
31,47,-0.242150
32,47,-0.029891
33,47,0.171334
34,47,0.213887
35,47,-0.063029
36,47,-0.271670
37,47,-0.033090
38,47,-0.406285
39,47,-0.188877
40,47,-0.086510
41,47,-0.358595
42,47,0.171659
43,47,0.821225
44,47,0.400460
45,47,-1.024551
0,48,-0.193667
1,48,0.140174
2,48,0.116544
3,48,-0.671618
4,48,-0.060265
5,48,0.200208
6,48,-0.699447
7,48,0.572170
8,48,-0.733139
9,48,-0.342739
10,48,-0.117189
11,48,0.430051
12,48,0.271574
13,48,0.367936
14,48,-1.614187
15,48,-0.167237
16,48,0.321689
17,48,0.321694
18,48,0.302887
19,48,-0.643716
20,48,0.464399
21,48,-0.534995
22,48,0.522869
23,48,-0.427454
24,48,2.208993
25,48,-0.733062
26,48,-0.209651
27,48,0.820654
28,48,1.109284
29,48,-0.688664
30,48,-0.148211
31,48,0.003369
32,48,0.199644
33,48,0.626887
34,48,0.936746
35,48,0.407076
36,48,-0.217310
37,48,0.365326
38,48,-0.232811
39,48,-0.403360
40,48,0.156212
41,48,-0.571124
42,48,0.380326
43,48,0.326802
44,48,0.116389
45,48,4.073549
0,49,0.097739
1,49,0.149143
2,49,-0.027347
3,49,0.121910
4,49,0.184652
5,49,-0.050889
6,49,0.124739
7,49,-0.046879
8,49,-0.005961
9,49,0.309633
10,49,-0.206949
11,49,0.136175
12,49,0.027435
13,49,-0.165356
14,49,-0.135253
15,49,0.432495
16,49,0.427536
17,49,-0.011096
18,49,0.678886
19,49,-0.221046
20,49,0.096773
21,49,0.405705
22,49,-0.488276
23,49,-0.278660
24,49,-0.599133
25,49,-0.315946
26,49,0.188893
27,49,-0.096132
28,49,-0.116361
29,49,0.003757
30,49,0.249455
31,49,-0.007784
32,49,-0.110956
33,49,-0.523318
34,49,0.232723
35,49,-0.182821
36,49,0.181815
37,49,-0.026476
38,49,0.222685
39,49,-0.321087
40,49,-0.149528
41,49,0.022095
42,49,0.068500
43,49,0.183155
44,49,0.503276
45,49,-0.359424
0,50,-0.614626
1,50,0.105762
2,50,-0.203726
3,50,0.032934
4,50,-0.117503
5,50,-0.499172
6,50,-0.222973
7,50,-0.312868
8,50,-0.308762
9,50,-1.097982
10,50,0.104103
11,50,-0.036743
12,50,-0.202131
13,50,-0.420991
14,50,0.913985
15,50,-0.079322
16,50,-0.132041
17,50,-0.113396
18,50,-0.176037
19,50,-0.282926
20,50,-1.980749
21,50,-0.422047
22,50,-0.205521
23,50,-0.894034
24,50,-1.040170
25,50,-0.478499
26,50,-0.220418
27,50,-0.160469
28,50,0.475256
29,50,1.322684
30,50,-0.767576
31,50,0.125368
32,50,-0.144578
33,50,-0.013905
34,50,-0.457772
35,50,-0.683965
36,50,-0.274802
37,50,-0.706125
38,50,0.644142
39,50,-0.737159
40,50,-0.100888
41,50,0.083768
42,50,-0.433504
43,50,0.872160
44,50,1.439729
45,50,8.113667
0,51,-0.106045
1,51,0.068966
2,51,-0.409482
3,51,-1.481673
4,51,0.119351
5,51,-0.116246
6,51,-0.046482
7,51,-0.287369
8,51,1.480374
9,51,-0.633459
10,51,0.646239
11,51,-0.448405
12,51,-0.095295
13,51,-1.284171
14,51,1.238601
15,51,-1.206653
16,51,-0.010087
17,51,-0.247993
18,51,1.432565
19,51,-0.295535
20,51,0.356620
21,51,-0.594500
22,51,0.428964
23,51,0.798044
24,51,0.951942
25,51,-0.370331
26,51,-1.462763
27,51,0.216205
28,51,-0.160907
29,51,-0.989737
30,51,-0.288447
31,51,-0.137972
32,51,-0.050693
33,51,-0.333868
34,51,1.851985
35,51,0.656900
36,51,-0.201821
37,51,0.384741
38,51,-0.484020
39,51,-1.411170
40,51,0.727369
41,51,-0.292689
42,51,-0.195777
43,51,-0.017508
44,51,-0.174262
45,51,0.239713
0,52,-0.459562
1,52,0.215267
2,52,0.438561
3,52,-1.922542
4,52,-3.973899
5,52,-0.341474
6,52,0.562719
7,52,-0.189248
8,52,-2.470542
9,52,3.076652
10,52,-0.086281
11,52,0.105414
12,52,0.027835
13,52,-0.715987
14,52,1.282985
15,52,-0.358334
16,52,-0.433473
17,52,0.334482
18,52,3.129944
19,52,0.953897
20,52,0.051834
21,52,0.500385
22,52,0.571463
23,52,1.291133
24,52,3.577576
25,52,0.173520
26,52,0.490339
27,52,0.002007
28,52,3.566682
29,52,-2.207895
30,52,-0.390633
31,52,-0.645538
32,52,-0.380223
33,52,0.364270
34,52,-1.227987
35,52,0.224541
36,52,0.374128
37,52,0.206142
38,52,0.962546
39,52,2.070375
40,52,0.200165
41,52,0.138028
42,52,-0.252574
43,52,-4.958561
44,52,-1.622595
45,52,0.167885
0,53,0.368666
1,53,-0.277974
2,53,0.690258
3,53,-1.291072
4,53,1.604122
5,53,-0.616260
6,53,-0.762944
7,53,1.716229
8,53,1.344613
9,53,0.287970
10,53,0.313908
11,53,0.320070
12,53,0.294338
13,53,0.598307
14,53,0.200572
15,53,-0.267079
16,53,-0.676288
17,53,0.800034
18,53,-0.791280
19,53,-1.420153
20,53,-0.005395
21,53,-0.667792
22,53,2.349286
23,53,1.115393
24,53,-1.190364
25,53,0.465789
26,53,-0.531919
27,53,0.443365
28,53,-1.362857
29,53,1.330762
30,53,-0.349560
31,53,-0.292369
32,53,0.260129
33,53,0.405664
34,53,0.509696
35,53,-0.140094
36,53,-0.012783
37,53,0.596160
38,53,-0.055418
39,53,-0.071533
40,53,0.194773
41,53,-0.521449
42,53,0.764839
43,53,1.141460
44,53,-1.096196
45,53,0.154355
0,54,0.068001
1,54,0.390513
2,54,-0.183796
3,54,0.925072
4,54,0.721943
5,54,0.338461
6,54,-0.764477
7,54,-0.275480
8,54,0.665603
9,54,0.459351
10,54,0.371236
11,54,-0.282458
12,54,-0.280120
13,54,-0.731346
14,54,-1.631616
15,54,-0.410317
16,54,0.325303
17,54,0.448713
18,54,-2.000312
19,54,-0.722511
20,54,0.154072
21,54,-2.275190
22,54,-0.043557
23,54,-0.287475
24,54,0.957105
25,54,-0.022592
26,54,-0.803424
27,54,0.330089
28,54,-0.463665
29,54,0.204403
30,54,-0.283358
31,54,0.004729
32,54,0.015599
33,54,0.709665
34,54,-0.753594
35,54,0.195782
36,54,-0.882211
37,54,-0.308831
38,54,0.010460
39,54,-1.041884
40,54,-0.062522
41,54,-0.471931
42,54,0.250038
43,54,0.735844
44,54,0.086525
45,54,0.267307
0,55,0.408097
1,55,0.209221
2,55,0.310854
3,55,-1.985445
4,55,-0.410933
5,55,0.642861
6,55,0.012939
7,55,0.367287
8,55,0.646749
9,55,0.215994
10,55,0.069257
11,55,-0.114479
12,55,0.266802
13,55,-0.072623
14,55,0.470574
15,55,-1.398058
16,55,0.168679
17,55,-0.160220
18,55,-0.072687
19,55,-0.006711
20,55,0.057063
21,55,0.392057
22,55,-1.431631
23,55,-0.651724
24,55,-0.531590
25,55,0.097481
26,55,-0.365175
27,55,-0.572282
28,55,-1.220755
29,55,-0.002129
30,55,0.282775
31,55,-0.212192
32,55,-0.045355
33,55,1.494969
34,55,-0.150914
35,55,0.097577
36,55,-0.054320
37,55,-0.232069
38,55,-0.195587
39,55,-1.410587
40,55,0.214152
41,55,0.590789
42,55,-1.103049
43,55,0.915488
44,55,1.458514
45,55,4.887276
0,56,-0.822947
1,56,0.271061
2,56,-0.458448
3,56,5.238450
4,56,-4.266705
5,56,-0.138618
6,56,0.606394
7,56,0.107567
8,56,-4.313222
9,56,2.588855
10,56,0.397802
11,56,-0.012136
12,56,0.881290
13,56,-1.211314
14,56,2.983980
15,56,-0.260122
16,56,0.226717
17,56,-0.219320
18,56,-0.366099
19,56,-0.762937
20,56,0.599167
21,56,1.507332
22,56,-0.504113
23,56,2.661309
24,56,-0.706233
25,56,0.628990
26,56,2.108201
27,56,0.038299
28,56,-2.484859
29,56,0.747018
30,56,-0.221125
31,56,-0.151326
32,56,-0.825884
33,56,-3.631661
34,56,-3.497124
35,56,0.457748
36,56,1.036597
37,56,-1.470993
38,56,3.143267
39,56,0.801981
40,56,0.429557
41,56,0.351145
42,56,0.660729
43,56,1.477424
44,56,6.740920
45,56,9.601001
0,57,-0.176059
1,57,-0.223280
2,57,0.247456
3,57,-0.105562
4,57,0.051155
5,57,0.076133
6,57,-0.259438
7,57,0.076381
8,57,-0.012200
9,57,0.184189
10,57,0.099792
11,57,0.029178
12,57,0.015131
13,57,0.250465
14,57,0.298190
15,57,-0.629876
16,57,-0.886910
17,57,0.462418
18,57,-0.227176
19,57,-0.754938
20,57,0.025757
21,57,-0.179434
22,57,1.117651
23,57,0.097011
24,57,1.219209
25,57,-0.846631
26,57,-0.134666
27,57,0.284254
28,57,-0.331349
29,57,-0.458273
30,57,-0.170000
31,57,-0.139597
32,57,0.250703
33,57,0.956626
34,57,-0.866774
35,57,-0.328832
36,57,0.063760
37,57,0.342287
38,57,0.083768
39,57,0.584373
40,57,-0.064210
41,57,-0.077542
42,57,0.095617
43,57,-0.788859
44,57,-0.364398
45,57,6.661349
0,58,1.021096
1,58,-1.679700
2,58,1.149514
3,58,-5.357636
4,58,2.782385
5,58,-0.187710
6,58,-3.109929
7,58,0.618546
8,58,3.376413
9,58,-4.450494
10,58,0.012509
11,58,0.532098
12,58,-0.046128
13,58,-0.541786
14,58,-3.021417
15,58,0.386180
16,58,-0.844629
17,58,-0.347839
18,58,-3.315439
19,58,3.747797
20,58,-0.499734
21,58,0.710498
22,58,0.072045
23,58,5.056778
24,58,1.948525
25,58,-0.101669
26,58,0.796766
27,58,0.436020
28,58,-3.272435
29,58,-2.430854
30,58,0.124244
31,58,-1.518181
32,58,-0.102667
33,58,4.487110
34,58,-1.467453
35,58,0.187677
36,58,2.379973
37,58,1.215866
38,58,1.779896
39,58,2.136703
40,58,-0.111744
41,58,0.216106
42,58,3.633575
43,58,-1.780101
44,58,-0.487280
45,58,14.100860
0,59,0.415429
1,59,-0.032613
2,59,0.051565
3,59,0.726731
4,59,1.429672
5,59,0.070710
6,59,0.003522
7,59,-0.318047
8,59,0.436709
9,59,-1.243726
10,59,0.023476
11,59,-0.002143
12,59,-0.182031
13,59,0.472951
14,59,0.144082
15,59,0.452342
16,59,-0.837845
17,59,0.149389
18,59,-1.189269
19,59,0.267269
20,59,-0.275299
21,59,-0.252838
22,59,0.199993
23,59,-0.871215
24,59,-0.474052
25,59,-0.211571
26,59,0.075832
27,59,-0.133446
28,59,0.173972
29,59,-0.197315
30,59,0.314873
31,59,-0.113949
32,59,0.126115
33,59,0.344935
34,59,-0.235729
35,59,-0.202094
36,59,-0.014120
37,59,0.051219
38,59,0.128280
39,59,0.102373
40,59,-0.070879
41,59,0.076659
42,59,-0.194487
43,59,-0.301308
44,59,-0.013856
45,59,-2.957868
0,60,0.353113
1,60,0.263621
2,60,0.397035
3,60,-1.257061
4,60,-0.164483
5,60,-2.062882
6,60,-0.061860
7,60,0.305280
8,60,-1.627594
9,60,0.505818
10,60,-0.212174
11,60,0.186615
12,60,0.334067
13,60,0.166562
14,60,0.332694
15,60,0.581241
16,60,-0.282058
17,60,0.126296
18,60,-0.347512
19,60,-0.264518
20,60,0.572432
21,60,0.839759
22,60,0.232351
23,60,2.810418
24,60,0.113505
25,60,0.615218
26,60,0.253486
27,60,-0.008421
28,60,0.815538
29,60,-0.521455
30,60,0.470548
31,60,-0.163554
32,60,-0.016111
33,60,0.330202
34,60,0.440095
35,60,0.179801
36,60,0.310296
37,60,0.438069
38,60,-0.286997
39,60,0.188881
40,60,-0.601884
41,60,0.209711
42,60,0.292202
43,60,-0.216217
44,60,-0.357574
45,60,4.367823
0,61,0.406973
1,61,0.428165
2,61,-0.534795
3,61,-0.389279
4,61,0.495304
5,61,-0.147113
6,61,0.198151
7,61,-0.058254
8,61,0.387368
9,61,-2.494861
10,61,-0.105419
11,61,0.138844
12,61,-0.095727
13,61,-0.493525
14,61,1.907729
15,61,0.698130
16,61,0.949391
17,61,-0.801472
18,61,1.227168
19,61,0.884393
20,61,0.102336
21,61,0.870212
22,61,-0.144763
23,61,-1.343501
24,61,-2.066387
25,61,0.016743
26,61,0.232553
27,61,0.107911
28,61,1.105539
29,61,0.218989
30,61,-0.016453
31,61,0.611066
32,61,0.255360
33,61,-0.916795
34,61,-0.614661
35,61,-0.187654
36,61,0.467142
37,61,-0.057605
38,61,0.090728
39,61,-0.466177
40,61,-0.036605
41,61,-0.486775
42,61,-0.009264
43,61,0.569642
44,61,2.086642
45,61,1.631685
0,62,-0.052321
1,62,-0.727292
2,62,0.322687
3,62,0.978448
4,62,-0.768615
5,62,0.599491
6,62,-1.449359
7,62,-0.272573
8,62,5.333724
9,62,2.905732
10,62,0.707194
11,62,-0.978224
12,62,-1.489027
13,62,-3.252880
14,62,2.938130
15,62,-0.277241
16,62,-1.408690
17,62,0.056840
18,62,-3.449565
19,62,-4.617397
20,62,0.370499
21,62,-0.699645
22,62,0.582268
23,62,-0.552126
24,62,-1.457824
25,62,0.489024
26,62,0.691531
27,62,0.305491
28,62,-0.985616
29,62,-2.886281
30,62,-0.125276
31,62,0.002781
32,62,-1.031567
33,62,-1.150434
34,62,-3.738727
35,62,-0.002782
36,62,-0.588800
37,62,1.857377
38,62,-1.308534
39,62,2.816592
40,62,0.480912
41,62,1.030440
42,62,1.062405
43,62,3.960650
44,62,0.497862
45,62,3.132430
0,63,-0.388892
1,63,-0.216512
2,63,-0.146019
3,63,-1.346232
4,63,-0.470178
5,63,0.041584
6,63,-0.126102
7,63,-0.028129
8,63,-0.691357
9,63,0.825027
10,63,-0.168889
11,63,0.187392
12,63,0.255495
13,63,0.928020
14,63,-0.408151
15,63,-1.453766
16,63,0.368594
17,63,0.036986
18,63,0.864245
19,63,0.088195
20,63,0.084954
21,63,-0.274153
22,63,0.288147
23,63,-0.300181
24,63,0.250497
25,63,-0.128735
26,63,-0.080279
27,63,0.319730
28,63,-0.232903
29,63,-0.124447
30,63,-0.053314
31,63,0.233482
32,63,0.486962
33,63,0.256946
34,63,-0.672577
35,63,-0.168488
36,63,0.254711
37,63,0.941255
38,63,0.936857
39,63,-0.168381
40,63,-0.295792
41,63,-0.107077
42,63,0.394485
43,63,-0.605466
44,63,0.267578
45,63,1.349965
0,64,0.488868
1,64,-0.594489
2,64,-0.900598
3,64,-1.244867
4,64,1.286070
5,64,-0.067292
6,64,-0.494106
7,64,0.523114
8,64,3.208699
9,64,-0.672230
10,64,-0.423363
11,64,0.783660
12,64,0.363461
13,64,2.070654
14,64,-2.836177
15,64,0.523260
16,64,-0.043263
17,64,-0.183827
18,64,-0.966786
19,64,-3.194960
20,64,-0.010657
21,64,0.094878
22,64,-1.450283
23,64,0.646440
24,64,1.809132
25,64,-0.311194
26,64,1.012908
27,64,-0.049979
28,64,0.038935
29,64,-4.235270
30,64,0.552740
31,64,0.536509
32,64,-0.842482
33,64,-2.850460
34,64,0.529843
35,64,-0.241663
36,64,0.274014
37,64,-0.490031
38,64,0.959565
39,64,-0.050248
40,64,-0.086952
41,64,0.582293
42,64,-0.297077
43,64,-1.901538
44,64,-0.284795
45,64,-0.357791
0,65,0.067128
1,65,-0.399980
2,65,0.428427
3,65,-1.664457
4,65,-1.153517
5,65,0.456127
6,65,0.274767
7,65,0.941456
8,65,1.296461
9,65,2.710697
10,65,-0.572878
11,65,0.234673
12,65,0.616371
13,65,-0.399875
14,65,-1.538603
15,65,-0.002405
16,65,0.204822
17,65,0.863678
18,65,-0.772897
19,65,-0.885369
20,65,0.479560
21,65,-0.073527
22,65,1.718112
23,65,0.970359
24,65,0.524552
25,65,-0.320747
26,65,1.470391
27,65,-0.067220
28,65,-1.047586
29,65,0.139099
30,65,0.243838
31,65,0.061400
32,65,0.549383
33,65,2.590773
34,65,-1.270236
35,65,0.231868
36,65,-0.299548
37,65,0.169420
38,65,-1.785439
39,65,1.227887
40,65,-0.463085
41,65,0.952305
42,65,-0.406731
43,65,0.606834
44,65,-0.248034
45,65,7.904472
0,66,0.117841
1,66,0.138662
2,66,0.045141
3,66,0.337934
4,66,0.079209
5,66,-0.071215
6,66,0.048215
7,66,-0.042070
8,66,0.019010
9,66,-0.072073
10,66,-0.111654
11,66,-0.011031
12,66,-0.166069
13,66,0.052995
14,66,0.129326
15,66,-0.039970
16,66,0.445359
17,66,-0.173299
18,66,-0.273695
19,66,-0.060902
20,66,0.214370
21,66,-0.107813
22,66,-0.544711
23,66,-0.233387
24,66,-0.393062
25,66,-0.246454
26,66,-0.374590
27,66,-0.224298
28,66,-0.278757
29,66,0.542503
30,66,-0.377822
31,66,0.215542
32,66,0.040642
33,66,-0.171350
34,66,-0.035672
35,66,0.168976
36,66,-0.010903
37,66,-0.308360
38,66,0.178542
39,66,-0.038847
40,66,-0.100446
41,66,0.013468
42,66,-0.101315
43,66,0.415870
44,66,-0.279987
45,66,3.011487
0,67,-0.045081
1,67,0.731566
2,67,0.349360
3,67,-0.936513
4,67,0.316413
5,67,-0.046417
6,67,-0.176084
7,67,-0.549941
8,67,-3.426475
9,67,-3.416404
10,67,0.161084
11,67,-0.101323
12,67,1.197952
13,67,-1.440000
14,67,2.901122
15,67,-0.375500
16,67,2.064891
17,67,1.108426
18,67,2.938901
19,67,4.268073
20,67,-0.142321
21,67,-0.534706
22,67,2.580225
23,67,-4.136710
24,67,5.551196
25,67,0.244147
26,67,0.066484
27,67,0.801295
28,67,3.366131
29,67,-1.332920
30,67,-0.478140
31,67,0.832511
32,67,1.184973
33,67,5.341877
34,67,-2.515635
35,67,0.206012
36,67,0.277643
37,67,1.232400
38,67,1.215070
39,67,6.632353
40,67,-0.144172
41,67,0.292387
42,67,0.824401
43,67,-1.332139
44,67,0.399920
45,67,3.718740
0,68,-0.425104
1,68,0.140605
2,68,-0.085900
3,68,-0.000987
4,68,0.362712
5,68,-0.511714
6,68,0.202729
7,68,-0.357574
8,68,0.248130
9,68,-0.189148
10,68,0.200291
11,68,-0.099460
12,68,-0.429738
13,68,-0.221234
14,68,-0.153270
15,68,-0.554517
16,68,0.061487
17,68,0.183637
18,68,-0.979444
19,68,-1.056811
20,68,0.228241
21,68,0.328488
22,68,0.354494
23,68,0.799531
24,68,0.227247
25,68,0.117814
26,68,0.311765
27,68,0.405250
28,68,-0.154925
29,68,0.439929
30,68,0.377985
31,68,-0.058288
32,68,0.064337
33,68,0.235160
34,68,-0.084891
35,68,0.303040
36,68,0.021704
37,68,0.174579
38,68,-0.436959
39,68,-0.125134
40,68,0.076261
41,68,0.185379
42,68,0.021986
43,68,0.095479
44,68,-0.563196
45,68,0.214168
0,69,-0.663337
1,69,-0.090827
2,69,-0.457249
3,69,0.078057
4,69,-0.496671
5,69,-0.030435
6,69,0.021343
7,69,-1.208703
8,69,0.252775
9,69,-0.620003
10,69,-0.149119
11,69,-0.137006
12,69,-0.544561
13,69,-2.177290
14,69,0.527083
15,69,-0.147361
16,69,-0.154609
17,69,-0.175500
18,69,0.270642
19,69,1.029761
20,69,0.185897
21,69,0.281104
22,69,-0.798418
23,69,1.073479
24,69,-1.089177
25,69,0.107492
26,69,0.811873
27,69,-0.135920
28,69,1.492818
29,69,0.515198
30,69,0.031309
31,69,-0.171623
32,69,-0.299475
33,69,0.214583
34,69,1.314812
35,69,0.409179
36,69,-0.142023
37,69,-0.272382
38,69,-0.973157
39,69,-0.389215
40,69,0.492743
41,69,0.188675
42,69,-0.163924
43,69,-0.000024
44,69,-0.426873
45,69,2.831782
0,70,0.339334
1,70,0.146951
2,70,-0.079403
3,70,0.373251
4,70,0.235071
5,70,-0.141236
6,70,0.172639
7,70,-0.015073
8,70,-0.324004
9,70,0.600098
10,70,-0.087087
11,70,-0.314819
12,70,-0.083975
13,70,-0.279859
14,70,-0.504956
15,70,-0.042537
16,70,0.182436
17,70,-0.001815
18,70,-0.429251
19,70,-0.224859
20,70,0.050795
21,70,-0.392304
22,70,0.115152
23,70,-0.707572
24,70,-0.274353
25,70,0.058432
26,70,-0.274911
27,70,0.170993
28,70,-0.165320
29,70,0.544699
30,70,-0.029431
31,70,-0.325881
32,70,-0.301199
33,70,0.476286
34,70,-0.117653
35,70,-0.344250
36,70,-0.284689
37,70,-0.145597
38,70,0.317915
39,70,-0.281725
40,70,-0.015199
41,70,-0.252105
42,70,-0.018592
43,70,0.365177
44,70,0.257176
45,70,1.446213
0,71,-0.013000
1,71,-0.090991
2,71,0.085319
3,71,0.503521
4,71,0.061015
5,71,0.230521
6,71,-0.003180
7,71,0.149899
8,71,0.046841
9,71,-0.323214
10,71,-0.338968
11,71,-0.128718
12,71,-0.087135
13,71,-0.283533
14,71,0.171051
15,71,0.201874
16,71,0.079370
17,71,0.260448
18,71,-0.262719
19,71,0.532496
20,71,-0.285938
21,71,0.531857
22,71,0.484854
23,71,1.182926
24,71,-0.874285
25,71,-0.373429
26,71,-0.238239
27,71,-0.048408
28,71,-0.337512
29,71,0.360079
30,71,0.030341
31,71,0.093723
32,71,0.047849
33,71,-0.080809
34,71,0.791407
35,71,0.083390
36,71,0.154505
37,71,-0.589483
38,71,-0.628499
39,71,-0.666375
40,71,0.001293
41,71,0.078471
42,71,-0.106296
43,71,-0.179732
44,71,-0.430408
45,71,-0.676044
0,72,-0.158641
1,72,1.195543
2,72,-1.689021
3,72,4.176878
4,72,-2.888065
5,72,-0.216142
6,72,4.090305
7,72,-1.666512
8,72,-0.103739
9,72,-0.419948
10,72,-0.656430
11,72,0.314968
12,72,-0.813235
13,72,-0.999949
14,72,4.135715
15,72,0.296418
16,72,3.316090
17,72,-1.061223
18,72,-0.044623
19,72,2.281736
20,72,0.115518
21,72,8.459665
22,72,-0.130018
23,72,-2.216731
24,72,-0.347599
25,72,-0.409227
26,72,1.638223
27,72,0.075442
28,72,-1.344652
29,72,-0.552417
30,72,0.091566
31,72,0.931494
32,72,1.094927
33,72,-3.548846
34,72,-1.163617
35,72,0.654890
36,72,3.179172
37,72,-0.007895
38,72,0.689996
39,72,-1.613897
40,72,-0.437721
41,72,0.278936
42,72,0.177858
43,72,5.425508
44,72,1.633030
45,72,-0.414189
46,74,0.032744
47,74,0.042617
48,74,0.142162
49,74,0.145523
50,74,-0.476927
51,74,0.516912
52,74,0.069829
53,74,0.563124
54,74,0.408883
55,74,-0.561112
56,74,-0.068767
57,74,0.451852
58,74,-0.376603
59,74,0.212217
60,74,0.678499
61,74,0.347541
62,74,0.600286
63,74,0.295660
64,74,0.440590
65,74,-0.060432
66,74,-0.087211
67,74,0.262450
68,74,0.256543
69,74,1.030666
70,74,0.088879
71,74,0.381642
72,74,0.183103
73,74,0.218571
46,75,-0.328988
47,75,-0.434594
48,75,1.049935
49,75,-1.281271
50,75,4.060974
51,75,0.797130
52,75,-0.819122
53,75,-0.660106
54,75,-2.141396
55,75,1.221951
56,75,0.155824
57,75,1.155501
58,75,-0.429735
59,75,-0.561169
60,75,0.703290
61,75,1.284663
62,75,1.521524
63,75,0.540304
64,75,-0.126166
65,75,0.568797
66,75,4.708769
67,75,-0.374304
68,75,-1.277379
69,75,0.676727
70,75,4.657389
71,75,-2.295153
72,75,-2.199805
73,75,1.181944
46,76,-0.498867
47,76,0.643596
48,76,-0.325082
49,76,0.068842
50,76,-0.190841
51,76,-0.164990
52,76,-0.353328
53,76,0.093366
54,76,0.149831
55,76,-0.235819
56,76,-0.388974
57,76,-2.227601
58,76,0.359185
59,76,0.975325
60,76,0.014386
61,76,0.373592
62,76,-0.049394
63,76,0.802799
64,76,-0.230034
65,76,0.213721
66,76,-0.303075
67,76,-0.432858
68,76,-2.403937
69,76,0.313200
70,76,-0.037383
71,76,0.413109
72,76,-0.149435
73,76,-0.420646
46,77,-0.606920
47,77,-0.311510
48,77,0.065502
49,77,0.388864
50,77,0.105667
51,77,-0.232830
52,77,-0.404861
53,77,-0.183378
54,77,-0.694141
55,77,-0.002920
56,77,0.473243
57,77,0.028036
58,77,-0.336205
59,77,0.928057
60,77,-0.063753
61,77,0.355806
62,77,0.104128
63,77,0.547067
64,77,-0.217849
65,77,-0.111272
66,77,0.174315
67,77,-0.249718
68,77,-0.167472
69,77,0.084751
70,77,0.233241
71,77,0.185033
72,77,0.041161
73,77,0.115736
46,78,0.709379
47,78,0.109048
48,78,0.063992
49,78,0.298946
50,78,0.158484
51,78,0.224216
52,78,0.349470
53,78,0.460191
54,78,1.154549
55,78,0.353970
56,78,-0.123583
57,78,0.749650
58,78,0.148940
59,78,0.036371
60,78,-0.210748
61,78,-0.613976
62,78,0.087448
63,78,0.300431
64,78,0.542010
65,78,-0.186106
66,78,0.362314
67,78,0.428282
68,78,0.042028
69,78,-0.032536
70,78,0.532921
71,78,-0.021740
72,78,0.424973
73,78,0.118074
46,79,0.713713
47,79,0.937053
48,79,0.014293
49,79,-0.209808
50,79,1.452994
51,79,-1.416320
52,79,0.844309
53,79,-0.874850
54,79,-0.352514
55,79,1.145371
56,79,0.152501
57,79,0.617282
58,79,0.609374
59,79,-0.198500
60,79,-0.008885
61,79,0.741125
62,79,0.120704
63,79,0.103035
64,79,0.474404
65,79,-0.357969
66,79,1.576867
67,79,0.275639
68,79,1.579328
69,79,0.969813
70,79,-0.253695
71,79,0.296508
72,79,-0.318211
73,79,-0.022837
46,80,2.126344
47,80,-1.080632
48,80,1.663450
49,80,-0.539277
50,80,1.081168
51,80,0.576240
52,80,-0.501136
53,80,0.442583
54,80,-0.069828
55,80,0.389290
56,80,0.713148
57,80,2.924244
58,80,-0.666893
59,80,1.095261
60,80,0.404179
61,80,2.561781
62,80,0.343735
63,80,0.547588
64,80,-0.198524
65,80,3.254382
66,80,0.394036
67,80,0.241930
68,80,0.262192
69,80,0.506483
70,80,1.114550
71,80,0.290138
72,80,-0.456601
73,80,0.721828
46,81,1.716767
47,81,-5.689067
48,81,0.836432
49,81,7.124732
50,81,1.253706
51,81,-0.922424
52,81,-0.261084
53,81,0.319219
54,81,2.308645
55,81,0.607991
56,81,1.688916
57,81,2.107376
58,81,3.630222
59,81,1.855393
60,81,-0.279256
61,81,0.423184
62,81,2.043803
63,81,-0.673009
64,81,-2.700766
65,81,0.402134
66,81,1.329658
67,81,1.883451
68,81,-0.104118
69,81,0.529601
70,81,7.078349
71,81,-1.315536
72,81,-1.966982
73,81,0.324624
46,82,-0.421667
47,82,-0.244171
48,82,0.062746
49,82,0.150049
50,82,-0.770289
51,82,0.553364
52,82,-0.044336
53,82,0.052130
54,82,0.187375
55,82,-0.306983
56,82,0.412854
57,82,-0.941155
58,82,-0.289755
59,82,0.925310
60,82,0.537468
61,82,0.085425
62,82,0.164502
63,82,0.105974
64,82,-0.367188
65,82,-0.201968
66,82,0.156847
67,82,-0.092184
68,82,0.084942
69,82,0.956312
70,82,0.136387
71,82,0.575428
72,82,-0.022125
73,82,0.105314
46,83,0.933923
47,83,1.050728
48,83,-0.540197
49,83,0.920839
50,83,-1.085309
51,83,0.290297
52,83,0.198942
53,83,0.111255
54,83,0.976527
55,83,0.079159
56,83,-0.529979
57,83,0.380845
58,83,-0.101865
59,83,0.678771
60,83,-0.669592
61,83,-0.266151
62,83,-0.056933
63,83,0.151351
64,83,0.185289
65,83,-1.629987
66,83,-0.050163
67,83,0.315812
68,83,0.024264
69,83,-0.208116
70,83,-0.857682
71,83,-0.698814
72,83,0.040255
73,83,-0.088522
46,84,-0.468749
47,84,-0.135839
48,84,0.546431
49,84,-0.442253
50,84,-1.558816
51,84,0.682813
52,84,-0.079912
53,84,0.805196
54,84,-0.505070
55,84,0.689696
56,84,-0.357487
57,84,-0.999416
58,84,0.128473
59,84,1.058880
60,84,-0.087233
61,84,0.710663
62,84,0.521258
63,84,0.369932
64,84,0.209449
65,84,-0.156182
66,84,0.591747
67,84,0.172176
68,84,0.695464
69,84,1.644370
70,84,0.760661
71,84,0.198200
72,84,-0.083523
73,84,0.636807
46,85,0.726777
47,85,-0.215573
48,85,-0.380251
49,85,1.211205
50,85,1.053409
51,85,0.059309
52,85,0.355220
53,85,0.225654
54,85,0.098574
55,85,0.346520
56,85,0.292192
57,85,0.514319
58,85,0.428392
59,85,0.065375
60,85,0.302515
61,85,0.040609
62,85,-0.669829
63,85,0.539450
64,85,0.056772
65,85,0.812561
66,85,0.504382
67,85,0.237974
68,85,0.293618
69,85,0.078898
70,85,0.259820
71,85,0.283980
72,85,0.401754
73,85,0.137850
46,86,-0.137206
47,86,0.413264
48,86,-0.140029
49,86,0.403400
50,86,-1.151947
51,86,-0.153994
52,86,0.086175
53,86,-0.053194
54,86,0.081376
55,86,-0.313841
56,86,-0.017197
57,86,-0.874150
58,86,-0.286885
59,86,0.552100
60,86,0.538868
61,86,0.246321
62,86,-0.034108
63,86,-0.741303
64,86,0.209542
65,86,-0.179469
66,86,0.122244
67,86,-0.172267
68,86,-0.314746
69,86,0.493073
70,86,-0.617163
71,86,0.764456
72,86,0.101028
73,86,0.178381
46,87,0.194457
47,87,0.344531
48,87,-0.005480
49,87,0.399322
50,87,1.766764
51,87,0.158050
52,87,-0.131679
53,87,-0.409026
54,87,-0.365633
55,87,0.750355
56,87,0.322143
57,87,1.484392
58,87,0.764536
59,87,-0.371023
60,87,-0.013640
61,87,-0.220641
62,87,-0.019251
63,87,0.608285
64,87,0.089033
65,87,0.189148
66,87,1.346239
67,87,-0.253012
68,87,-0.848627
69,87,-0.237211
70,87,0.290153
71,87,0.176135
72,87,0.006937
73,87,-0.051497
46,88,1.438042
47,88,-0.181089
48,88,0.111559
49,88,0.214127
50,88,0.842446
51,88,-0.582384
52,88,0.445712
53,88,0.496496
54,88,0.994677
55,88,0.683927
56,88,-0.138141
57,88,0.385333
58,88,0.499653
59,88,-0.230945
60,88,0.204734
61,88,1.187897
62,88,0.101244
63,88,-0.099583
64,88,0.178447
65,88,0.467552
66,88,0.752433
67,88,0.301955
68,88,-1.136047
69,88,0.525325
70,88,1.432628
71,88,0.343460
72,88,-0.071299
73,88,0.263851
46,89,-0.292686
47,89,0.691872
48,89,-0.014998
49,89,0.362402
50,89,2.950849
51,89,1.967455
52,89,0.245478
53,89,1.839177
54,89,-0.463856
55,89,1.253235
56,89,-0.024508
57,89,-0.134276
58,89,-3.711063
59,89,0.484993
60,89,-1.770473
61,89,-1.376670
62,89,0.250006
63,89,3.394379
64,89,-0.187642
65,89,0.026544
66,89,0.722086
67,89,0.394777
68,89,0.317036
69,89,-0.765666
70,89,-1.894660
71,89,0.628777
72,89,-0.190071
73,89,-0.718960
46,90,0.673599
47,90,0.183122
48,90,0.708667
49,90,1.524982
50,90,0.824158
51,90,0.733490
52,90,-0.332399
53,90,0.239364
54,90,0.062767
55,90,0.300774
56,90,0.462252
57,90,-0.019029
58,90,-0.495026
59,90,0.462101
60,90,0.524893
61,90,0.030512
62,90,0.304389
63,90,0.482349
64,90,0.420326
65,90,0.492574
66,90,1.037301
67,90,0.132736
68,90,0.074573
69,90,0.866222
70,90,-0.079827
71,90,0.668361
72,90,-0.080753
73,90,0.155059
46,91,0.378844
47,91,2.343761
48,91,-1.230732
49,91,0.899278
50,91,3.503623
51,91,-0.934560
52,91,-1.077523
53,91,2.912342
54,91,-1.659532
55,91,0.164139
56,91,-1.641819
57,91,-1.977893
58,91,-0.562226
59,91,1.275560
60,91,1.821291
61,91,-0.421617
62,91,-0.152125
63,91,2.858978
64,91,0.545715
65,91,-0.528497
66,91,1.420142
67,91,-0.059256
68,91,-0.915971
69,91,0.724359
70,91,1.998440
71,91,1.884484
72,91,-1.752549
73,91,0.020595
74,93,-0.238847
75,93,2.497821
76,93,0.906152
77,93,0.632324
78,93,-1.725623
79,93,1.855062
80,93,0.561390
81,93,0.560679
82,93,1.042808
83,93,0.319168
84,93,8.823333
85,93,8.387897
86,93,2.853581
87,93,0.639190
88,93,1.297885
89,93,-1.787449
90,93,6.463461
91,93,-0.028312
92,93,0.033484
74,94,-0.150927
75,94,0.247142
76,94,0.304605
77,94,0.370301
78,94,0.242784
79,94,-0.034020
80,94,0.175309
81,94,0.359999
82,94,0.038718
83,94,1.050019
84,94,0.157103
85,94,-0.120100
86,94,-0.144713
87,94,0.065329
88,94,0.710567
89,94,0.044885
90,94,-0.093095
91,94,-0.259975
92,94,-0.462626
74,95,-0.386469
75,95,0.410577
76,95,0.074869
77,95,0.583432
78,95,0.203840
79,95,-0.306553
80,95,0.391582
81,95,0.223320
82,95,-0.369045
83,95,0.840974
84,95,0.339390
85,95,-0.751568
86,95,-0.184268
87,95,-0.070986
88,95,-0.239574
89,95,-0.175271
90,95,-0.663742
91,95,0.061830
92,95,-0.383059
74,96,-0.547372
75,96,0.809519
76,96,-0.350343
77,96,-0.026622
78,96,0.171922
79,96,0.528595
80,96,0.725463
81,96,-0.170629
82,96,0.104590
83,96,-0.222611
84,96,0.100642
85,96,-0.567230
86,96,-0.051475
87,96,0.928758
88,96,0.348399
89,96,0.318078
90,96,1.155096
91,96,0.767151
92,96,0.521608
74,97,0.072412
75,97,-0.618637
76,97,0.089058
77,97,-0.351448
78,97,-0.769125
79,97,0.399147
80,97,-2.004665
81,97,-0.473122
82,97,1.032728
83,97,0.468278
84,97,-0.278696
85,97,0.414011
86,97,1.642608
87,97,-0.369512
88,97,0.426421
89,97,0.590136
90,97,0.548791
91,97,0.261548
92,97,0.427463
74,98,-0.455296
75,98,0.705446
76,98,-0.215945
77,98,0.176606
78,98,0.396020
79,98,0.031317
80,98,0.578874
81,98,-0.320169
82,98,0.382237
83,98,-0.022898
84,98,0.073291
85,98,0.277669
86,98,-0.147737
87,98,0.866271
88,98,0.304254
89,98,0.261650
90,98,0.642014
91,98,0.812189
92,98,0.518647
74,99,0.422611
75,99,-0.716626
76,99,1.272006
77,99,1.032962
78,99,0.313659
79,99,0.211396
80,99,-2.394433
81,99,0.392130
82,99,-0.297290
83,99,1.554020
84,99,0.160451
85,99,-0.013845
86